{"data":{"search":{"pageInfo":{"hasNextPage":true,"endCursor":"Y3Vyc29yOjU="},"nodes":[{"number":2424,"title":"fix(list): clamp selected index using cached item count","isDraft":false,"updatedAt":"2026-07-22T23:07:00Z","reviewDecision":"CHANGES_REQUESTED","author":{"login":"Logan-Ruf"},"repository":{"nameWithOwner":"ratatui/ratatui"},"comments":{"totalCount":6}},{"number":2579,"title":"fix(gauge): include cell after label in filled area","isDraft":false,"updatedAt":"2026-07-22T17:20:21Z","reviewDecision":"APPROVED","author":{"login":"truffle-dev"},"repository":{"nameWithOwner":"ratatui/ratatui"},"comments":{"totalCount":1}},{"number":1553,"title":"fix: list scrolling for multi-line items","isDraft":false,"updatedAt":"2026-07-21T14:07:03Z","reviewDecision":"REVIEW_REQUIRED","author":{"login":"raylu"},"repository":{"nameWithOwner":"ratatui/ratatui"},"comments":{"totalCount":3}},{"number":2653,"title":"build(deps): bump zizmorcore/zizmor-action from 0.5.7 to 0.6.0","isDraft":false,"updatedAt":"2026-07-20T21:20:15Z","reviewDecision":"APPROVED","author":{"login":"dependabot"},"repository":{"nameWithOwner":"ratatui/ratatui"},"comments":{"totalCount":0}},{"number":2655,"title":"build(deps): bump tombi-toml/setup-tombi from 1.2.0 to 1.2.4","isDraft":false,"updatedAt":"2026-07-20T21:19:31Z","reviewDecision":"APPROVED","author":{"login":"dependabot"},"repository":{"nameWithOwner":"ratatui/ratatui"},"comments":{"totalCount":0}}]}}}